---
title: "R Notebook"
output: html_notebook
---

> los datos de altitud de bci estan a 5 x 5 m...

Yes, the elevation data that Stuart gave me is this (original here: https://goo.gl/VvH1yb):

``` r
library(tibble)
bci::bci_elevation
#> # A tibble: 20,301 x 3
#>        x     y   elev
#>    <int> <int>  <dbl>
#>  1     0     0 120.63
#>  2     0     5 120.87
#>  3     0    10 121.12
#>  4     0    15 121.36
#>  5     0    20 121.29
#>  6     0    25 123.45
#>  7     0    30 125.34
#>  8     0    35 126.53
#>  9     0    40 127.20
#> 10     0    45 127.69
#> # ... with 20,291 more rows
```
…
