Plot Repulsive Tags from Sinharaha
…
Split the data

splitted <- sinh_df %>% split(.$quadrat_vftbl)
# example
splitted[["0015"]]
#> # A tibble: 315 x 7
#>      tag subquadrat_vftbl quadrat_vftbl    lx    ly    status symbol
#>    <chr>            <int>         <chr> <dbl> <dbl>     <chr>  <int>
#> 1 004193               11          0015   2.1   0.5     alive     16
#> 2 004194               11          0015   1.0   1.6 stem dead     16
#> 3 004195               11          0015   1.1   1.8     alive     16
#> # ... with 312 more rows
…
