Mapping Functions • fgeo.map
…
# Be careful if filtering by DBH: You may unintentionally remove dead trees.
# * Confirm this dataset has dead trees:
# (see `?vft_4quad`)
dead <- vft_4quad %>%
  add_status_tree(status_a = "alive", status_d = "dead") %>%
  pick_top(QuadratID) %>%
  filter(status_tree == "dead")
select(dead, Tag, Status, status_tree, DBH)
#> # A tibble: 132 x 4
#>    Tag    Status status_tree   DBH
#>    <chr>  <chr>  <chr>       <dbl>
#>  1 102031 dead   dead           NA
#>  2 102081 dead   dead           NA
#>  3 102088 dead   dead           NA
#>  4 102188 dead   dead           NA
#>  5 102217 dead   dead           NA
#>  6 102221 dead   dead           NA
#>  7 102301 dead   dead           NA
#>  8 102304 dead   dead           NA
#>  9 102381 dead   dead           NA
#> 10 102425 dead   dead           NA
#> # ... with 122 more rows
…
# Be careful if filtering by DBH: You may unintentionally remove dead trees.
# * Confirm this dataset has dead trees:
# (see `?vft_4quad`)
dead <- vft_4quad %>%
  add_status_tree(status_a = "alive", status_d = "dead") %>%
  pick_top(QuadratID) %>%
  filter(status_tree == "dead")
select(dead, Tag, Status, status_tree, DBH)
#> # A tibble: 132 x 4
#>    Tag    Status status_tree   DBH
#>    <chr>  <chr>  <chr>       <dbl>
#>  1 102031 dead   dead           NA
#>  2 102081 dead   dead           NA
#>  3 102088 dead   dead           NA
#>  4 102188 dead   dead           NA
#>  5 102217 dead   dead           NA
#>  6 102221 dead   dead           NA
#>  7 102301 dead   dead           NA
#>  8 102304 dead   dead           NA
#>  9 102381 dead   dead           NA
#> 10 102425 dead   dead           NA
#> # ... with 122 more rows
…
wrong
#> # A tibble: 0 x 33
#> # ... with 33 variables: DBHID <int>, PlotName <chr>, PlotID <int>,
#> #   Family <chr>, Genus <chr>, SpeciesName <chr>, Mnemonic <chr>,
#> #   Subspecies <chr>, SpeciesID <int>, SubspeciesID <chr>,
#> #   QuadratName <chr>, QuadratID <int>, PX <dbl>, PY <dbl>, QX <dbl>,
#> #   QY <dbl>, TreeID <int>, Tag <chr>, StemID <int>, StemNumber <int>,
#> #   StemTag <int>, PrimaryStem <chr>, CensusID <int>,
#> #   PlotCensusNumber <int>, DBH <dbl>, HOM <dbl>, ExactDate <date>,
#> #   Date <int>, ListOfTSM <chr>, HighHOM <int>, LargeStem <chr>,
#> #   Status <chr>, status_tree <chr>
# * The right way to do it is to explicietly inlcude rows where DBH = NA
right <- filter(dead, DBH > 10 | is.na(DBH))
right
#> # A tibble: 132 x 33
#>     DBHID PlotName PlotID Family   Genus   SpeciesName Mnemonic Subspecies
#>     <int> <chr>     <int> <chr>    <chr>   <chr>       <chr>    <chr>     
#>  1 385081 luquillo      1 Araliac~ Scheff~ morototoni  SCHMOR   <NA>      
#>  2 385101 luquillo      1 Rubiace~ Psycho~ brachiata   PSYBRA   <NA>      
#>  3 385102 luquillo      1 Piperac~ Piper   glabrescens PIPGLA   <NA>      
#>  4 385153 luquillo      1 Piperac~ Piper   glabrescens PIPGLA   <NA>      
#>  5 385160 luquillo      1 Araliac~ Scheff~ morototoni  SCHMOR   <NA>      
#>  6 385161 luquillo      1 Arecace~ Presto~ acuminata   PREMON   <NA>      
#>  7 385188 luquillo      1 Urticac~ Cecrop~ schreberia~ CECSCH   <NA>      
#>  8 385189 luquillo      1 Rubiace~ Psycho~ brachiata   PSYBRA   <NA>      
#>  9 385232 luquillo      1 Laurace~ Nectan~ turbacensis OCOSIN   <NA>      
#> 10 385240 luquillo      1 Rubiace~ Psycho~ brachiata   PSYBRA   <NA>      
#> # ... with 122 more rows, and 25 more variables: SpeciesID <int>,
#> #   SubspeciesID <chr>, QuadratName <chr>, QuadratID <int>, PX <dbl>,
#> #   PY <dbl>, QX <dbl>, QY <dbl>, TreeID <int>, Tag <chr>, StemID <int>,
#> #   StemNumber <int>, StemTag <int>, PrimaryStem <chr>, CensusID <int>,
#> #   PlotCensusNumber <int>, DBH <dbl>, HOM <dbl>, ExactDate <date>,
#> #   Date <int>, ListOfTSM <chr>, HighHOM <int>, LargeStem <chr>,
#> #   Status <chr>, status_tree <chr>
…
