Mapping Latest Tree-Status in Subquadrats
…
Reading the error message will help you identify which variables you need to rename.

bci_vft1_rnm <- dplyr::rename(bci_vft1, qx = x, qy = y)
# Using lowercase names for simiplicity
names(bci_vft1_rnm) <- tolower(names(bci_vft1_rnm))

With the techniques you’ll learn here, you can produce maps of an entire data set, or of just a few quadrats. To save space, let’s focus just on (any) one quadrat.

any_quadrat <- sample(unique(bci_vft1_rnm$quadratname), 1)
filter(bci_vft1_rnm, quadratname == any_quadrat)
#> # A tibble: 481 x 28
#>   measureid plotid  plot           family          genusspecies     genus
#>       <int>  <int> <chr>            <chr>                 <chr>     <chr>
#> 1        47      1   bci Chrysobalanaceae      Licania platypus   Licania
#> 2        48      1   bci        Meliaceae Trichilia tuberculata Trichilia
#> 3     77570      1   bci        Violaceae Hybanthus prunifolius Hybanthus
#> 4     77571      1   bci        Violaceae Hybanthus prunifolius Hybanthus
#> 5     77572      1   bci        Rubiaceae  Faramea occidentalis   Faramea
#> 6     77573      1   bci        Violaceae Hybanthus prunifolius Hybanthus
#> # ... with 475 more rows, and 22 more variables: speciesname <chr>,
#> #   subspeciesname <chr>, speciesid <int>, mnemonic <chr>,
#> #   quadratid <int>, quadratname <chr>, qx <dbl>, qy <dbl>, gx <dbl>,
#> #   gy <dbl>, treeid <int>, tag <chr>, stemid <int>, stemtag <chr>,
#> #   primarystem <chr>, censusid <int>, plotcensusnumber <int>, dbh <int>,
#> #   hom <dbl>, exactdate <date>, listoftsm <chr>, status <chr>
…
Calling add_subquadrat() Directly

If you want to only calculate the variable subquadrat, you don’t need to use map_tag() – can directly call add_subquadrat().

with_subquadrat <- add_subquadrat(bci_vft1_rnm, x_q = 20, x_sq = 5)
#> Lowering names case
select(
  with_subquadrat, 
  # reorder variables to show first what's new 
  subquadrat, qx, qy, everything()
)
#> # A tibble: 4,374 x 29
#>   subquadrat    qx    qy measureid plotid  plot        family
#>        <chr> <dbl> <dbl>     <int>  <int> <chr>         <chr>
#> 1         32  14.1   8.3         2      1   bci Lecythidaceae
#> 2         32  10.5   8.9         3      1   bci Myristicaceae
#> 3         34  13.5  18.3         4      1   bci     Malvaceae
#> 4         32  12.7   9.3         5      1   bci   Burseraceae
#> 5         13   1.9  13.5         6      1   bci      Moraceae
#> 6         14   3.7  16.5         7      1   bci   Burseraceae
#> # ... with 4,368 more rows, and 22 more variables: genusspecies <chr>,
#> #   genus <chr>, speciesname <chr>, subspeciesname <chr>, speciesid <int>,
#> #   mnemonic <chr>, quadratid <int>, quadratname <chr>, gx <dbl>,
#> #   gy <dbl>, treeid <int>, tag <chr>, stemid <int>, stemtag <chr>,
#> #   primarystem <chr>, censusid <int>, plotcensusnumber <int>, dbh <int>,
#> #   hom <dbl>, exactdate <date>, listoftsm <chr>, status <chr>

But if you don’t mind going through a little more trouble, you can also get the subquadrat variable from the data the underlies the maps.

maps <- map_tag(bci_vft1_rnm, x_q = 20, x_sq = 5)
#> Warning in map_tag(bci_vft1_rnm, x_q = 20, x_sq = 5): Multiple censuses were detected
#>   * Filtering only the greatest `CensusID`
data_list <- purrr::map(maps, "data")
data_combined <- purrr::reduce(data_list, rbind)
select(
  data_combined,
  subquadrat, qx, qy, everything()
)
#> # A tibble: 2,018 x 15
#>   subquadrat    qx    qy    tag status censusid plotid status_tree  page
#>        <chr> <dbl> <dbl>  <chr>  <chr>    <int>  <int>       <chr> <dbl>
#> 1         11   2.7   1.7 124872   dead      171      1        dead     1
#> 2         11   0.9   0.2 127645  alive      171      1       alive     1
#> 3         11   1.1   0.3 127646  alive      171      1       alive     1
#> 4         11   2.8   1.5 127647  alive      171      1       alive     1
#> 5         11   4.3   0.2 127649   dead      171      1        dead     1
#> 6         11   4.9   0.7 127651  alive      171      1       alive     1
#> # ... with 2,012 more rows, and 6 more variables: x1 <dbl>, x2 <dbl>,
#> #   y1 <dbl>, y2 <dbl>, split <chr>, quad_id <chr>
…
