Mapping species distribution • map
…
# Converting dataframe to tibble for better printing
example_data <- as_tibble(forestr::bci12t7mini)

# Let's find the top-3 most abundant species
sp_n <- count(example_data, sp)
sp_arranged <- arrange(sp_n, desc(n))
sp_top3 <- sp_arranged$sp[1:3]
sp_top3
#> [1] "hybapr" "faraoc" "des2pa"

# For a small example, keeping data of only the 3 most abundant species
census <- filter(example_data, sp  %in% sp_top3)
census
#> # A tibble: 315 x 20
#>   treeID stemID    tag StemTag     sp quadrat    gx    gy MeasureID
#>    <int>  <int>  <chr>   <chr>  <chr>   <chr> <dbl> <dbl>     <int>
#> 1   8651      1 010554         hybapr    4811   974 227.6      6832
#> 2   9480      1 011419         faraoc    4814   977 290.0      7373
#> 3  10179     11 012145    <NA> hybapr    4819   979 395.3      7898
#> 4  15240     NA 019314    <NA> hybapr    4223   845 461.2        NA
#> 5  15680     NA 019758    <NA> hybapr    4824   979 483.4        NA
#> 6  15888     NA 020180    <NA> faraoc    4701   950  29.8        NA
#> # ... with 309 more rows, and 11 more variables: CensusID <int>,
#> #   dbh <dbl>, pom <chr>, hom <dbl>, ExactDate <chr>, DFstatus <chr>,
#> #   codes <chr>, nostems <dbl>, date <dbl>, status <chr>, agb <dbl>
…
