…
    Data sets for examples; adapted from bciex::bci12vft_mini.

one_quadrat

four_quadrats

    Format

    An object of class tbl_df (inherits from tbl, data.frame) with 143 rows and 28 columns.

    Examples

library(tibble)
one_quadrat
#> # A tibble: 143 x 28
#>    MeasureID PlotID  Plot           Family            GenusSpecies
#>        <int>  <int> <chr>            <chr>                   <chr>
#>  1         1      1   bci    Lecythidaceae        Gustavia superba
#>  2         2      1   bci    Myristicaceae     Virola surinamensis
#>  3         3      1   bci        Malvaceae  Quararibea asterolepis
#>  4      8501      1   bci      Burseraceae    Trattinnickia aspera
#>  5     11627      1   bci     Bignoniaceae        Jacaranda copaia
#>  6     11628      1   bci       Sapotaceae Chrysophyllum argenteum
#>  7     11630      1   bci        Violaceae   Hybanthus prunifolius
#>  8     11632      1   bci        Violaceae   Hybanthus prunifolius
#>  9     11633      1   bci       Salicaceae          Laetia thamnia
#> 10     11635      1   bci Chrysobalanaceae       Hirtella triandra
#> # ... with 133 more rows, and 23 more variables: Genus <chr>,
#> #   SpeciesName <chr>, SubSpeciesName <chr>, SpeciesID <int>, Mnemonic <chr>,
#> #   QuadratID <int>, QuadratName <chr>, QX <dbl>, QY <dbl>, gx <dbl>, gy <dbl>,
#> #   TreeID <int>, Tag <chr>, StemID <int>, StemTag <chr>, PrimaryStem <chr>,
#> #   CensusID <int>, PlotCensusNumber <int>, DBH <int>, HOM <dbl>,
#> #   ExactDate <date>, ListOfTSM <chr>, Status <chr>
four_quadrats
#> # A tibble: 696 x 28
#>    MeasureID PlotID  Plot        Family           GenusSpecies      Genus
#>        <int>  <int> <chr>         <chr>                  <chr>      <chr>
#>  1         1      1   bci Lecythidaceae       Gustavia superba   Gustavia
#>  2         2      1   bci Myristicaceae    Virola surinamensis     Virola
#>  3         3      1   bci     Malvaceae Quararibea asterolepis Quararibea
#>  4         4      1   bci   Burseraceae    Protium tenuifolium    Protium
#>  5         5      1   bci      Moraceae    Brosimum alicastrum   Brosimum
#>  6         7      1   bci     Malvaceae Quararibea asterolepis Quararibea
#>  7         8      1   bci     Malvaceae Quararibea asterolepis Quararibea
#>  8        11      1   bci Anacardiaceae    Anacardium excelsum Anacardium
#>  9        12      1   bci     Meliaceae  Trichilia tuberculata  Trichilia
#> 10        13      1   bci      Moraceae       Poulsenia armata  Poulsenia
#> # ... with 686 more rows, and 22 more variables: SpeciesName <chr>,
#> #   SubSpeciesName <chr>, SpeciesID <int>, Mnemonic <chr>, QuadratID <int>,
#> #   QuadratName <chr>, QX <dbl>, QY <dbl>, gx <dbl>, gy <dbl>, TreeID <int>,
#> #   Tag <chr>, StemID <int>, StemTag <chr>, PrimaryStem <chr>, CensusID <int>,
#> #   PlotCensusNumber <int>, DBH <int>, HOM <dbl>, ExactDate <date>,
#> #   ListOfTSM <chr>, Status <chr>
…
